
{
  "data": 
  {"cod":"200","message":0.0103,"cnt":40,"list":[{"dt":1505865600,"main":{"temp":9.08,"temp_min":7.79,"temp_max":9.08,"pressure":1003.44,"sea_level":1031.52,"grnd_level":1003.44,"humidity":77,"temp_kf":1.29},"weather":[{"id":801,"main":"Clouds","description":"few clouds","icon":"02n"}],"clouds":{"all":24},"wind":{"speed":5.31,"deg":261.001},"rain":{},"sys":{"pod":"n"},"dt_txt":"2017-09-20 00:00:00"},{"dt":1505876400,"main":{"temp":7.83,"temp_min":6.87,"temp_max":7.83,"pressure":1004.44,"sea_level":1032.7,"grnd_level":1004.44,"humidity":74,"temp_kf":0.97},"weather":[{"id":802,"main":"Clouds","description":"scattered clouds","icon":"03n"}],"clouds":{"all":44},"wind":{"speed":4.17,"deg":257.504},"rain":{},"sys":{"pod":"n"},"dt_txt":"2017-09-20 03:00:00"},{"dt":1505887200,"main":{"temp":4.47,"temp_min":3.83,"temp_max":4.47,"pressure":1005.69,"sea_level":1034.1,"grnd_level":1005.69,"humidity":80,"temp_kf":0.65},"weather":[{"id":801,"main":"Clouds","description":"few clouds","icon":"02n"}],"clouds":{"all":20},"wind":{"speed":2.32,"deg":239.004},"rain":{},"sys":{"pod":"n"},"dt_txt":"2017-09-20 06:00:00"},{"dt":1505898000,"main":{"temp":1.94,"temp_min":1.62,"temp_max":1.94,"pressure":1006.33,"sea_level":1034.83,"grnd_level":1006.33,"humidity":89,"temp_kf":0.32},"weather":[{"id":803,"main":"Clouds","description":"broken clouds","icon":"04n"}],"clouds":{"all":56},"wind":{"speed":1.43,"deg":207.001},"rain":{},"sys":{"pod":"n"},"dt_txt":"2017-09-20 09:00:00"},{"dt":1505908800,"main":{"temp":1.6,"temp_min":1.6,"temp_max":1.6,"pressure":1006.76,"sea_level":1035.33,"grnd_level":1006.76,"humidity":89,"temp_kf":0},"weather":[{"id":500,"main":"Rain","description":"light rain","icon":"10n"}],"clouds":{"all":88},"wind":{"speed":1.31,"deg":160.501},"rain":{"3h":0.0050000000000003},"sys":{"pod":"n"},"dt_txt":"2017-09-20 12:00:00"},{"dt":1505919600,"main":{"temp":1.74,"temp_min":1.74,"temp_max":1.74,"pressure":1007.33,"sea_level":1036.03,"grnd_level":1007.33,"humidity":93,"temp_kf":0},"weather":[{"id":500,"main":"Rain","description":"light rain","icon":"10n"}],"clouds":{"all":80},"wind":{"speed":1.3,"deg":129.505},"rain":{"3h":0.135},"sys":{"pod":"n"},"dt_txt":"2017-09-20 15:00:00"},{"dt":1505930400,"main":{"temp":3.2,"temp_min":3.2,"temp_max":3.2,"pressure":1007.29,"sea_level":1035.84,"grnd_level":1007.29,"humidity":100,"temp_kf":0},"weather":[{"id":500,"main":"Rain","description":"light rain","icon":"10d"}],"clouds":{"all":80},"wind":{"speed":1.88,"deg":94.5004},"rain":{"3h":0.52},"snow":{"3h":0.08625},"sys":{"pod":"d"},"dt_txt":"2017-09-20 18:00:00"},{"dt":1505941200,"main":{"temp":5.84,"temp_min":5.84,"temp_max":5.84,"pressure":1007.47,"sea_level":1035.79,"grnd_level":1007.47,"humidity":97,"temp_kf":0},"weather":[{"id":500,"main":"Rain","description":"light rain","icon":"10d"}],"clouds":{"all":20},"wind":{"speed":2.02,"deg":87.502},"rain":{"3h":0.07},"snow":{"3h":0.025},"sys":{"pod":"d"},"dt_txt":"2017-09-20 21:00:00"},{"dt":1505952000,"main":{"temp":7.81,"temp_min":7.81,"temp_max":7.81,"pressure":1007.06,"sea_level":1035.37,"grnd_level":1007.06,"humidity":86,"temp_kf":0},"weather":[{"id":800,"main":"Clear","description":"clear sky","icon":"01n"}],"clouds":{"all":0},"wind":{"speed":1.96,"deg":55.0041},"rain":{},"snow":{},"sys":{"pod":"n"},"dt_txt":"2017-09-21 00:00:00"},{"dt":1505962800,"main":{"temp":7.32,"temp_min":7.32,"temp_max":7.32,"pressure":1007.18,"sea_level":1035.48,"grnd_level":1007.18,"humidity":77,"temp_kf":0},"weather":[{"id":800,"main":"Clear","description":"clear sky","icon":"01n"}],"clouds":{"all":0},"wind":{"speed":1.46,"deg":29.0012},"rain":{},"snow":{},"sys":{"pod":"n"},"dt_txt":"2017-09-21 03:00:00"},{"dt":1505973600,"main":{"temp":2.39,"temp_min":2.39,"temp_max":2.39,"pressure":1007.03,"sea_level":1035.65,"grnd_level":1007.03,"humidity":89,"temp_kf":0},"weather":[{"id":801,"main":"Clouds","description":"few clouds","icon":"02n"}],"clouds":{"all":20},"wind":{"speed":1.41,"deg":355.003},"rain":{},"snow":{},"sys":{"pod":"n"},"dt_txt":"2017-09-21 06:00:00"},{"dt":1505984400,"main":{"temp":0.65,"temp_min":0.65,"temp_max":0.65,"pressure":1006,"sea_level":1034.71,"grnd_level":1006,"humidity":83,"temp_kf":0},"weather":[{"id":800,"main":"Clear","description":"clear sky","icon":"01n"}],"clouds":{"all":0},"wind":{"speed":2.31,"deg":24.5001},"rain":{},"snow":{},"sys":{"pod":"n"},"dt_txt":"2017-09-21 09:00:00"},{"dt":1505995200,"main":{"temp":-0.39,"temp_min":-0.39,"temp_max":-0.39,"pressure":1004.93,"sea_level":1033.81,"grnd_level":1004.93,"humidity":89,"temp_kf":0},"weather":[{"id":800,"main":"Clear","description":"clear sky","icon":"02n"}],"clouds":{"all":8},"wind":{"speed":3.32,"deg":42.0028},"rain":{},"snow":{},"sys":{"pod":"n"},"dt_txt":"2017-09-21 12:00:00"},{"dt":1506006000,"main":{"temp":-0.79,"temp_min":-0.79,"temp_max":-0.79,"pressure":1003.35,"sea_level":1032.27,"grnd_level":1003.35,"humidity":89,"temp_kf":0},"weather":[{"id":800,"main":"Clear","description":"clear sky","icon":"02n"}],"clouds":{"all":8},"wind":{"speed":3.6,"deg":45.0046},"rain":{},"snow":{},"sys":{"pod":"n"},"dt_txt":"2017-09-21 15:00:00"},{"dt":1506016800,"main":{"temp":1.15,"temp_min":1.15,"temp_max":1.15,"pressure":1001.58,"sea_level":1030.34,"grnd_level":1001.58,"humidity":84,"temp_kf":0},"weather":[{"id":800,"main":"Clear","description":"clear sky","icon":"01d"}],"clouds":{"all":0},"wind":{"speed":3.91,"deg":49.0008},"rain":{},"snow":{},"sys":{"pod":"d"},"dt_txt":"2017-09-21 18:00:00"},{"dt":1506027600,"main":{"temp":6.35,"temp_min":6.35,"temp_max":6.35,"pressure":999.78,"sea_level":1028.01,"grnd_level":999.78,"humidity":77,"temp_kf":0},"weather":[{"id":800,"main":"Clear","description":"clear sky","icon":"01d"}],"clouds":{"all":0},"wind":{"speed":4.32,"deg":58.0011},"rain":{},"snow":{},"sys":{"pod":"d"},"dt_txt":"2017-09-21 21:00:00"},{"dt":1506038400,"main":{"temp":9.57,"temp_min":9.57,"temp_max":9.57,"pressure":997.6,"sea_level":1025.76,"grnd_level":997.6,"humidity":67,"temp_kf":0},"weather":[{"id":800,"main":"Clear","description":"clear sky","icon":"02n"}],"clouds":{"all":8},"wind":{"speed":4.48,"deg":63.5026},"rain":{},"snow":{},"sys":{"pod":"n"},"dt_txt":"2017-09-22 00:00:00"},{"dt":1506049200,"main":{"temp":8.39,"temp_min":8.39,"temp_max":8.39,"pressure":996.3,"sea_level":1024.53,"grnd_level":996.3,"humidity":65,"temp_kf":0},"weather":[{"id":801,"main":"Clouds","description":"few clouds","icon":"02n"}],"clouds":{"all":24},"wind":{"speed":4.02,"deg":56.502},"rain":{},"snow":{},"sys":{"pod":"n"},"dt_txt":"2017-09-22 03:00:00"},{"dt":1506060000,"main":{"temp":5.23,"temp_min":5.23,"temp_max":5.23,"pressure":995.11,"sea_level":1023.54,"grnd_level":995.11,"humidity":70,"temp_kf":0},"weather":[{"id":500,"main":"Rain","description":"light rain","icon":"10n"}],"clouds":{"all":64},"wind":{"speed":4.68,"deg":41.0029},"rain":{"3h":0.0049999999999999},"snow":{},"sys":{"pod":"n"},"dt_txt":"2017-09-22 06:00:00"},{"dt":1506070800,"main":{"temp":4.84,"temp_min":4.84,"temp_max":4.84,"pressure":994.36,"sea_level":1022.7,"grnd_level":994.36,"humidity":77,"temp_kf":0},"weather":[{"id":500,"main":"Rain","description":"light rain","icon":"10n"}],"clouds":{"all":92},"wind":{"speed":4.46,"deg":45.5029},"rain":{"3h":0.125},"snow":{},"sys":{"pod":"n"},"dt_txt":"2017-09-22 09:00:00"},{"dt":1506081600,"main":{"temp":4.86,"temp_min":4.86,"temp_max":4.86,"pressure":993.28,"sea_level":1021.7,"grnd_level":993.28,"humidity":77,"temp_kf":0},"weather":[{"id":500,"main":"Rain","description":"light rain","icon":"10n"}],"clouds":{"all":92},"wind":{"speed":4.32,"deg":49.003},"rain":{"3h":0.11},"snow":{},"sys":{"pod":"n"},"dt_txt":"2017-09-22 12:00:00"},{"dt":1506092400,"main":{"temp":4.51,"temp_min":4.51,"temp_max":4.51,"pressure":992.42,"sea_level":1020.88,"grnd_level":992.42,"humidity":79,"temp_kf":0},"weather":[{"id":500,"main":"Rain","description":"light rain","icon":"10n"}],"clouds":{"all":92},"wind":{"speed":3.86,"deg":46.0017},"rain":{"3h":0.16},"snow":{},"sys":{"pod":"n"},"dt_txt":"2017-09-22 15:00:00"},{"dt":1506103200,"main":{"temp":4.25,"temp_min":4.25,"temp_max":4.25,"pressure":992.06,"sea_level":1020.42,"grnd_level":992.06,"humidity":84,"temp_kf":0},"weather":[{"id":500,"main":"Rain","description":"light rain","icon":"10d"}],"clouds":{"all":92},"wind":{"speed":3.71,"deg":47.5009},"rain":{"3h":0.31},"snow":{},"sys":{"pod":"d"},"dt_txt":"2017-09-22 18:00:00"},{"dt":1506114000,"main":{"temp":4.62,"temp_min":4.62,"temp_max":4.62,"pressure":991.67,"sea_level":1019.98,"grnd_level":991.67,"humidity":93,"temp_kf":0},"weather":[{"id":500,"main":"Rain","description":"light rain","icon":"10d"}],"clouds":{"all":92},"wind":{"speed":3.47,"deg":47.5057},"rain":{"3h":0.9},"snow":{},"sys":{"pod":"d"},"dt_txt":"2017-09-22 21:00:00"},{"dt":1506124800,"main":{"temp":4.94,"temp_min":4.94,"temp_max":4.94,"pressure":991.34,"sea_level":1019.49,"grnd_level":991.34,"humidity":98,"temp_kf":0},"weather":[{"id":500,"main":"Rain","description":"light rain","icon":"10n"}],"clouds":{"all":92},"wind":{"speed":3.01,"deg":41.0011},"rain":{"3h":0.84},"snow":{},"sys":{"pod":"n"},"dt_txt":"2017-09-23 00:00:00"},{"dt":1506135600,"main":{"temp":4.64,"temp_min":4.64,"temp_max":4.64,"pressure":991.14,"sea_level":1019.25,"grnd_level":991.14,"humidity":97,"temp_kf":0},"weather":[{"id":500,"main":"Rain","description":"light rain","icon":"10n"}],"clouds":{"all":92},"wind":{"speed":2.58,"deg":38.002},"rain":{"3h":0.78},"snow":{},"sys":{"pod":"n"},"dt_txt":"2017-09-23 03:00:00"},{"dt":1506146400,"main":{"temp":3.7,"temp_min":3.7,"temp_max":3.7,"pressure":990.79,"sea_level":1019.03,"grnd_level":990.79,"humidity":97,"temp_kf":0},"weather":[{"id":500,"main":"Rain","description":"light rain","icon":"10n"}],"clouds":{"all":92},"wind":{"speed":2.31,"deg":29.0095},"rain":{"3h":0.4},"snow":{},"sys":{"pod":"n"},"dt_txt":"2017-09-23 06:00:00"},{"dt":1506157200,"main":{"temp":3.22,"temp_min":3.22,"temp_max":3.22,"pressure":990.45,"sea_level":1018.75,"grnd_level":990.45,"humidity":99,"temp_kf":0},"weather":[{"id":500,"main":"Rain","description":"light rain","icon":"10n"}],"clouds":{"all":92},"wind":{"speed":2.11,"deg":28.5},"rain":{"3h":0.23},"snow":{},"sys":{"pod":"n"},"dt_txt":"2017-09-23 09:00:00"},{"dt":1506168000,"main":{"temp":3.1,"temp_min":3.1,"temp_max":3.1,"pressure":989.74,"sea_level":1017.97,"grnd_level":989.74,"humidity":99,"temp_kf":0},"weather":[{"id":500,"main":"Rain","description":"light rain","icon":"10n"}],"clouds":{"all":92},"wind":{"speed":2.21,"deg":34.5006},"rain":{"3h":0.13},"snow":{},"sys":{"pod":"n"},"dt_txt":"2017-09-23 12:00:00"},{"dt":1506178800,"main":{"temp":2.95,"temp_min":2.95,"temp_max":2.95,"pressure":988.53,"sea_level":1016.83,"grnd_level":988.53,"humidity":96,"temp_kf":0},"weather":[{"id":500,"main":"Rain","description":"light rain","icon":"10n"}],"clouds":{"all":92},"wind":{"speed":1.97,"deg":22.0005},"rain":{"3h":0.11},"snow":{},"sys":{"pod":"n"},"dt_txt":"2017-09-23 15:00:00"},{"dt":1506189600,"main":{"temp":3.52,"temp_min":3.52,"temp_max":3.52,"pressure":987.33,"sea_level":1015.56,"grnd_level":987.33,"humidity":98,"temp_kf":0},"weather":[{"id":803,"main":"Clouds","description":"broken clouds","icon":"04d"}],"clouds":{"all":76},"wind":{"speed":1.77,"deg":23.0008},"rain":{},"snow":{},"sys":{"pod":"d"},"dt_txt":"2017-09-23 18:00:00"},{"dt":1506200400,"main":{"temp":6.05,"temp_min":6.05,"temp_max":6.05,"pressure":986.33,"sea_level":1014.27,"grnd_level":986.33,"humidity":95,"temp_kf":0},"weather":[{"id":803,"main":"Clouds","description":"broken clouds","icon":"04d"}],"clouds":{"all":64},"wind":{"speed":1.97,"deg":337.003},"rain":{},"snow":{},"sys":{"pod":"d"},"dt_txt":"2017-09-23 21:00:00"},{"dt":1506211200,"main":{"temp":7.77,"temp_min":7.77,"temp_max":7.77,"pressure":984.77,"sea_level":1012.66,"grnd_level":984.77,"humidity":89,"temp_kf":0},"weather":[{"id":804,"main":"Clouds","description":"overcast clouds","icon":"04n"}],"clouds":{"all":92},"wind":{"speed":1.97,"deg":341.502},"rain":{},"snow":{},"sys":{"pod":"n"},"dt_txt":"2017-09-24 00:00:00"},{"dt":1506222000,"main":{"temp":7.55,"temp_min":7.55,"temp_max":7.55,"pressure":983.32,"sea_level":1011.15,"grnd_level":983.32,"humidity":90,"temp_kf":0},"weather":[{"id":500,"main":"Rain","description":"light rain","icon":"10n"}],"clouds":{"all":88},"wind":{"speed":1.41,"deg":345},"rain":{"3h":0.06},"snow":{},"sys":{"pod":"n"},"dt_txt":"2017-09-24 03:00:00"},{"dt":1506232800,"main":{"temp":5.84,"temp_min":5.84,"temp_max":5.84,"pressure":981.67,"sea_level":1009.74,"grnd_level":981.67,"humidity":95,"temp_kf":0},"weather":[{"id":500,"main":"Rain","description":"light rain","icon":"10n"}],"clouds":{"all":80},"wind":{"speed":1.66,"deg":348.002},"rain":{"3h":0.52},"snow":{},"sys":{"pod":"n"},"dt_txt":"2017-09-24 06:00:00"},{"dt":1506243600,"main":{"temp":5.15,"temp_min":5.15,"temp_max":5.15,"pressure":980.73,"sea_level":1008.68,"grnd_level":980.73,"humidity":96,"temp_kf":0},"weather":[{"id":500,"main":"Rain","description":"light rain","icon":"10n"}],"clouds":{"all":92},"wind":{"speed":1.37,"deg":336.002},"rain":{"3h":0.15},"snow":{},"sys":{"pod":"n"},"dt_txt":"2017-09-24 09:00:00"},{"dt":1506254400,"main":{"temp":4.29,"temp_min":4.29,"temp_max":4.29,"pressure":980.1,"sea_level":1008.11,"grnd_level":980.1,"humidity":94,"temp_kf":0},"weather":[{"id":500,"main":"Rain","description":"light rain","icon":"10n"}],"clouds":{"all":80},"wind":{"speed":1.48,"deg":8.00003},"rain":{"3h":0.04},"snow":{},"sys":{"pod":"n"},"dt_txt":"2017-09-24 12:00:00"},{"dt":1506265200,"main":{"temp":3.4,"temp_min":3.4,"temp_max":3.4,"pressure":980.19,"sea_level":1008.16,"grnd_level":980.19,"humidity":92,"temp_kf":0},"weather":[{"id":803,"main":"Clouds","description":"broken clouds","icon":"04n"}],"clouds":{"all":76},"wind":{"speed":1.21,"deg":29.5026},"rain":{},"snow":{},"sys":{"pod":"n"},"dt_txt":"2017-09-24 15:00:00"},{"dt":1506276000,"main":{"temp":4.97,"temp_min":4.97,"temp_max":4.97,"pressure":980.44,"sea_level":1008.25,"grnd_level":980.44,"humidity":97,"temp_kf":0},"weather":[{"id":802,"main":"Clouds","description":"scattered clouds","icon":"03d"}],"clouds":{"all":44},"wind":{"speed":1.52,"deg":320.002},"rain":{},"snow":{},"sys":{"pod":"d"},"dt_txt":"2017-09-24 18:00:00"},{"dt":1506286800,"main":{"temp":7.87,"temp_min":7.87,"temp_max":7.87,"pressure":980.3,"sea_level":1007.97,"grnd_level":980.3,"humidity":97,"temp_kf":0},"weather":[{"id":500,"main":"Rain","description":"light rain","icon":"10d"}],"clouds":{"all":36},"wind":{"speed":2.02,"deg":271.005},"rain":{"3h":0.0099999999999998},"snow":{},"sys":{"pod":"d"},"dt_txt":"2017-09-24 21:00:00"}],"city":{"id":5870294,"name":"North Pole","coord":{"lat":64.7511,"lon":-147.3495},"country":"US","population":2117}}
}